{"content":[{"id":2615,"projectName":"test_group","settingsId":null,"comment":"","lastModified":"2024-06-17T17:57:34","contentFormat":"yaml","contentModelVersion":null,"labelSet":[],"testType":"STABLE","requestCount":1,"totalDuration":720,"version":[{"id":3690,"projectId":2615,"settingsId":null,"createdOn":"2024-06-17T17:57:34.625Z","location":"boomq/teams/11/projects/2615/v_3690.yaml","comment":"","contentFormat":"yaml","contentModelVersion":"2.0.0","testType":"STABLE","requestCount":1,"totalDuration":720,"versionNumber":1}]},{"id":2594,"projectName":"testForArtem","settingsId":null,"comment":"","lastModified":"2024-06-17T17:24:23","contentFormat":"yaml","contentModelVersion":null,"labelSet":[],"testType":"STABLE","requestCount":1,"totalDuration":360,"version":[{"id":3659,"projectId":2594,"settingsId":null,"createdOn":"2024-06-17T14:32:04.045Z","location":"boomq/teams/11/projects/2594/v_3659.yaml","comment":"","contentFormat":"yaml","contentModelVersion":"2.0.0","testType":"STABLE","requestCount":1,"totalDuration":3720,"versionNumber":1},{"id":3662,"projectId":2594,"settingsId":null,"createdOn":"2024-06-17T14:32:19.011Z","location":"boomq/teams/11/projects/2594/v_3662.yaml","comment":"","contentFormat":"yaml","contentModelVersion":"2.0.0","testType":"STABLE","requestCount":1,"totalDuration":3720,"versionNumber":2},{"id":3663,"projectId":2594,"settingsId":null,"createdOn":"2024-06-17T15:02:15.290Z","location":"boomq/teams/11/projects/2594/v_3663.yaml","comment":"","contentFormat":"yaml","contentModelVersion":"2.0.0","testType":"STABLE","requestCount":1,"totalDuration":3720,"versionNumber":3},{"id":3687,"projectId":2594,"settingsId":null,"createdOn":"2024-06-17T17:24:23.896Z","location":"boomq/teams/11/projects/2594/v_3687.yaml","comment":"","contentFormat":"yaml","contentModelVersion":"2.0.0","testType":"STABLE","requestCount":1,"totalDuration":3720,"versionNumber":4},{"id":3688,"projectId":2594,"settingsId":null,"createdOn":"2024-06-17T17:24:54.791Z","location":"boomq/teams/11/projects/2594/v_3688.yaml","comment":"","contentFormat":"yaml","contentModelVersion":"2.0.0","testType":"STABLE","requestCount":1,"totalDuration":360,"versionNumber":5}]},{"id":2614,"projectName":"test_071206","settingsId":null,"comment":"","lastModified":"2024-06-17T17:06:39","contentFormat":"yaml","contentModelVersion":null,"labelSet":[],"testType":"STABLE","requestCount":1,"totalDuration":3720,"version":[{"id":3685,"projectId":2614,"settingsId":null,"createdOn":"2024-06-17T17:06:39.569Z","location":"boomq/teams/11/projects/2614/v_3685.yaml","comment":"","contentFormat":"yaml","contentModelVersion":"2.0.0","testType":"STABLE","requestCount":1,"totalDuration":3720,"versionNumber":1}]},{"id":2613,"projectName":"test_093151","settingsId":null,"comment":"","lastModified":"2024-06-17T17:05:04","contentFormat":"yaml","contentModelVersion":null,"labelSet":[],"testType":"STABLE","requestCount":1,"totalDuration":720,"version":[{"id":3684,"projectId":2613,"settingsId":null,"createdOn":"2024-06-17T17:05:04.947Z","location":"boomq/teams/11/projects/2613/v_3684.yaml","comment":"","contentFormat":"yaml","contentModelVersion":"2.0.0","testType":"STABLE","requestCount":1,"totalDuration":720,"versionNumber":1}]},{"id":2612,"projectName":"test_047793","settingsId":null,"comment":"","lastModified":"2024-06-17T17:03:43","contentFormat":"yaml","contentModelVersion":null,"labelSet":[],"testType":"STABLE","requestCount":1,"totalDuration":720,"version":[{"id":3683,"projectId":2612,"settingsId":null,"createdOn":"2024-06-17T17:03:43.070Z","location":"boomq/teams/11/projects/2612/v_3683.yaml","comment":"","contentFormat":"yaml","contentModelVersion":"2.0.0","testType":"STABLE","requestCount":1,"totalDuration":720,"versionNumber":1}]},{"id":2611,"projectName":"test_058599","settingsId":null,"comment":"","lastModified":"2024-06-17T16:59:26","contentFormat":"yaml","contentModelVersion":null,"labelSet":[],"testType":"STABLE","requestCount":1,"totalDuration":720,"version":[{"id":3682,"projectId":2611,"settingsId":null,"createdOn":"2024-06-17T16:59:26.938Z","location":"boomq/teams/11/projects/2611/v_3682.yaml","comment":"","contentFormat":"yaml","contentModelVersion":"2.0.0","testType":"STABLE","requestCount":1,"totalDuration":720,"versionNumber":1}]},{"id":2610,"projectName":"test_005835","settingsId":null,"comment":"","lastModified":"2024-06-17T16:59:00","contentFormat":"yaml","contentModelVersion":null,"labelSet":[],"testType":"STABLE","requestCount":1,"totalDuration":720,"version":[{"id":3681,"projectId":2610,"settingsId":null,"createdOn":"2024-06-17T16:59:00.660Z","location":"boomq/teams/11/projects/2610/v_3681.yaml","comment":"","contentFormat":"yaml","contentModelVersion":"2.0.0","testType":"STABLE","requestCount":1,"totalDuration":720,"versionNumber":1}]},{"id":2609,"projectName":"FFFFFFFFFFFFFFF","settingsId":null,"comment":"","lastModified":"2024-06-17T16:45:00","contentFormat":"yaml","contentModelVersion":null,"labelSet":[],"testType":"STABLE","requestCount":1,"totalDuration":720,"version":[{"id":3680,"projectId":2609,"settingsId":null,"createdOn":"2024-06-17T16:45:00.032Z","location":"boomq/teams/11/projects/2609/v_3680.yaml","comment":"","contentFormat":"yaml","contentModelVersion":"2.0.0","testType":"STABLE","requestCount":1,"totalDuration":720,"versionNumber":1}]},{"id":2608,"projectName":"1111111111111111111","settingsId":null,"comment":"","lastModified":"2024-06-17T16:42:32","contentFormat":"yaml","contentModelVersion":null,"labelSet":[],"testType":"STABLE","requestCount":1,"totalDuration":720,"version":[{"id":3678,"projectId":2608,"settingsId":null,"createdOn":"2024-06-17T16:42:32.519Z","location":"boomq/teams/11/projects/2608/v_3678.yaml","comment":"","contentFormat":"yaml","contentModelVersion":"2.0.0","testType":"STABLE","requestCount":1,"totalDuration":720,"versionNumber":1},{"id":3679,"projectId":2608,"settingsId":null,"createdOn":"2024-06-17T16:42:34.383Z","location":"boomq/teams/11/projects/2608/v_3679.yaml","comment":"","contentFormat":"yaml","contentModelVersion":"2.0.0","testType":"STABLE","requestCount":1,"totalDuration":720,"versionNumber":2}]}],"pageable":{"sort":{"sorted":true,"unsorted":false,"empty":false},"pageNumber":0,"pageSize":9,"offset":0,"paged":true,"unpaged":false},"last":false,"totalElements":86,"totalPages":10,"first":true,"sort":{"sorted":true,"unsorted":false,"empty":false},"numberOfElements":9,"size":9,"number":0,"empty":false}